1.wav,"we've been called into the pits for repairs"
2.wav,"the stewards have called us into the pits for repairs"
3.wav,"we've been called into the pits by the stewards for repairs"
4.wav,"we'll need to pit for repairs, we've been called in by the stewards"
