1.wav,"you might need more positive camber on the rears"
2.wav,"you might need more positive camber on the rears"
3.wav,"you might need more positive camber on the rears"
4.wav,"you might need more positive camber on the rears"
5.wav,"you might need more positive camber on the rears"
5.wav,""
